…
    ## `summarise()` has grouped output by 'Month'. You can override using the
    ## `.groups` argument.

``` r
meses_mas_llamadas
```

    ## # A tibble: 84 × 3
    ## # Groups:   Month [12]
    ##    Month Cod       Total_Llamadas
    ##    <dbl> <chr>              <int>
    ##  1    10 Consultas          10790
    ##  2     3 Consultas          10673
    ##  3     7 Consultas          10629
    ##  4     5 Consultas          10618
    ##  5     1 Consultas          10592
    ##  6     8 Consultas          10557
    ##  7    12 Consultas          10465
    ##  8    11 Consultas          10287
    ##  9     9 Consultas          10274
    ## 10     4 Consultas          10153
    ## # ℹ 74 more rows
…
``` r
flights2 <- flights2 %>%
  mutate(
    total_delay = dep_delay + arr_delay
  )
flights2
```

    ## # A tibble: 336,776 × 24
    ##     year month   day dep_time sched_dep_time dep_delay arr_time sched_arr_time
    ##    <int> <int> <int>    <int>          <int>     <dbl>    <int>          <int>
    ##  1  2013     1     1      517            515         2      830            819
    ##  2  2013     1     1      533            529         4      850            830
    ##  3  2013     1     1      542            540         2      923            850
    ##  4  2013     1     1      544            545        -1     1004           1022
    ##  5  2013     1     1      554            600        -6      812            837
    ##  6  2013     1     1      554            558        -4      740            728
    ##  7  2013     1     1      555            600        -5      913            854
    ##  8  2013     1     1      557            600        -3      709            723
    ##  9  2013     1     1      557            600        -3      838            846
    ## 10  2013     1     1      558            600        -2      753            745
    ## # ℹ 336,766 more rows
    ## # ℹ 16 more variables: arr_delay <dbl>, carrier <chr>, flight <int>,
    ## #   tailnum <chr>, origin <chr>, dest <chr>, air_time <dbl>, distance <dbl>,
    ## #   hour <dbl>, minute <dbl>, time_hour <dttm>, dep_datetime <dttm>,
    ## #   arr_datetime <dttm>, sched_dep_datetime <dttm>, sched_arr_datetime <dttm>,
    ## #   total_delay <dbl>
